<svg xmlns="http://www.w3.org/2000/svg" fill="none" viewBox="0 0 192 192">
  <path fill="#00000066" d="m 46.86952,190.58693 c 12.532019,-9.12935 20.629813,-20.43442 25.576771,-35.70693 3.341008,-10.31453 4.881504,-21.2838 4.887227,-34.8 0.0031,-7.32552 -0.384771,-12.8054 -1.347449,-19.03685 C 72.492819,78.431235 62.272318,60.106926 45.28,45.990322 32.850914,35.664686 18.298266,28.854216 2.520075,25.979171 L 1.4994245e-4,25.52 7.4971224e-5,19.144986 0,12.769972 0.84,12.878784 c 0.462,0.05985 2.28,0.351049 4.04,0.647117 18.438501,3.101731 35.149541,10.532998 49.579086,22.047427 C 63.89049,43.09936 71.558179,51.705784 77.290562,61.2 L 78.16,62.64 78.20051,38.36 78.24102,14.08 78.760506,14.0788 C 79.046232,14.07816 81.368,13.937532 83.92,13.766306 c 10.954803,-0.735013 20.75514,-1.103463 32.8,-1.233138 9.80363,-0.105545 12.95413,1.6e-4 17.6,0.590519 11.2304,1.427066 21.13462,5.054337 29.6,10.840561 7.7213,5.277628 12.76155,12.06382 15.17808,20.435757 2.708,9.381679 2.06922,21.216019 -1.69702,31.44 -3.61212,9.805578 -10.73144,19.80277 -19.0429,26.740645 -1.89514,1.58194 -5.88297,4.40418 -7.42943,5.25789 l -0.67126,0.37057 2.43126,0.83435 c 8.34537,2.86391 15.9837,7.04259 22.52023,12.32006 6.5617,5.29779 12.30694,11.82142 15.88939,18.04215 L 192,140.97133 v 25.24376 c 0,19.94308 -0.042,25.30095 -0.2,25.5161 -0.18483,0.2517 -0.8756,0.26918 -9.10771,0.23059 l -8.90771,-0.0418 1.20225,-1.44 c 6.25341,-7.49005 9.21493,-17.00076 8.53109,-27.39693 -0.73987,-11.24785 -4.98747,-20.43117 -13.26824,-28.68594 C 158.67406,122.85785 141.06817,116.05136 119.36,114.723 c -1.452,-0.0888 -8.16355,-0.16188 -14.91456,-0.16229 l -12.27456,-7.4e-4 -0.08441,6.2 c -0.04642,3.41 -0.123803,20.834 -0.171953,38.72 L 91.826974,192 H 85.033486 78.24 v -7.472 c 0,-4.6557 -0.05659,-7.4147 -0.150146,-7.32 -0.08258,0.0836 -0.764689,1.10906 -1.5158,2.2788 -2.38404,3.71278 -5.297619,7.45645 -8.275492,10.6332 L 66.536259,192 H 55.733016 44.929771 Z m 90.84482,-87.00773 c 4.95913,-2.85322 10.0787,-6.917648 14.00988,-11.122462 8.72292,-9.330061 13.31157,-18.340511 14.94004,-29.336738 0.2171,-1.465947 0.28512,-2.941621 0.28768,-6.24 0.003,-3.829678 -0.0378,-4.53519 -0.35852,-6.215952 -1.5686,-8.219373 -6.13089,-14.438878 -14.17145,-19.319158 -6.26096,-3.800136 -13.03536,-6.132317 -20.74765,-7.142664 -4.55955,-0.597322 -27.00501,-0.189498 -38.51432,0.699788 l -1.32,0.101992 V 63.942003 102.88 l 9.56,4.8e-4 c 11.38207,4.8e-4 18.07694,0.28585 29.84893,1.27213 5.11287,0.42836 4.65351,0.4691 6.46541,-0.57337 z" />
  <style>@media (prefers-color-scheme:dark){:root{filter:invert(100%)}}</style>
</svg>
